{
  "run_list":[
    "recipe[ntp]",
    "recipe[git]",
    "recipe[server-init]",
    "recipe[java]",
    "recipe[mysql-client]",
    "recipe[rvm]",
    "recipe[zabbix]",
    "recipe[miner-deploy::crawler]"
  ],
  "ntp": {
    "servers": ["ntp.nict.jp", "ntp.jst.mfeed.ad.jp"]
  },
  "server-init":{
    "user" : "chato",
    "group" : "staff"
  },
  "java": {
    "install_flavor": "oracle",
    "jdk_version": 7,
    "oracle": {
      "accept_oracle_download_terms": true
    }
  },
  "zabbix":{
    "agent":{
      "server_ip": "192.168.0.101"
    }
  }

}
